58365345 1
58365355 14
58365365 44
58365375 87
58365385 138
58365395 196
58365405 258
58365415 323
58365425 391
58365435 460
58365445 529
58365455 599
58365465 670
58365475 741
58365485 812
58365495 883
58365505 950
58365515 1008
58365525 1053
58365535 1082
58365545 1096
58365555 1096
58365565 1086
58365575 1069
58365585 1050
58365595 1030
58365605 1013
58365615 998
58365625 987
58365635 980
58365645 978
58365655 978
58365665 981
58365675 984
58365685 987
58365695 990
58365705 992
58365715 994
58365725 995
58365735 996
58365745 996
58365755 996
58365765 996
58365775 996
58365785 996
58365795 996
58365805 996
58365815 996
58365825 996
58365835 996
58365845 996
58365855 996
58365865 996
58365875 996
58365885 996
58365895 996
58365905 996
58365915 996
58365925 996
58365935 996
58365945 996
58365955 996
58365965 996
58365975 996
58365985 996
58365995 996
58366005 996
58366015 996
58366025 996
58366035 996
58366045 996
58366055 996
58366065 996
58366075 996
58366085 996
58366095 996
58366105 996
58366115 996
58366125 996
58366135 996
58366145 996
58366155 996
58366165 996
58366175 996
58366185 996
58366195 996
58366205 996
58366215 996
58366225 996
58366235 996
58366245 996
58366255 996
58366265 996
58366275 996
58366285 996
58366295 996
58366305 996
58366315 996
58366325 996
58366335 996
58366345 996
58366355 996
58366365 996
58366375 996
58366385 996
58366395 996
58366405 996
58366415 996
58366425 996
58366435 996
58366445 996
58366455 996
58366465 996
58366475 996
58366485 996
58366495 996
58366505 996
58366515 996
58366525 996
58366535 996
58366545 996
58366555 996
58366565 996
58366575 996
58366585 996
58366595 996
58366605 996
58366615 996
58366625 996
58366635 996
58366645 996
58366655 996
58366665 996
58366675 996
58366685 996
58366695 996
58366705 996
58366715 996
58366725 996
58366735 996
58366745 996
58366755 996
58366765 996
58366775 996
58366785 996
58366795 996
58366805 996
58366815 996
58366825 996
58366835 996
58366845 996
58366855 996
58366865 996
58366875 996
58366885 996
58366895 996
58366905 996
58366915 996
58366925 996
58366935 996
58366945 996
58366955 996
58366965 996
58366975 996
58366985 996
58366995 996
58367005 996
58367015 996
58367025 996
58367035 996
58367045 996
58367055 996
58367065 996
58367075 996
58367085 996
58367095 996
58367105 996
58367115 996
58367125 996
58367135 996
58367145 996
58367155 996
58367165 996
58367175 996
58367185 996
58367195 996
58367205 996
58367215 996
58367225 996
58367235 996
58367245 996
58367255 996
58367265 996
58367275 996
58367285 996
58367295 996
58367305 996
58367315 996
58367325 996
58367335 996
74592402 0
74592412 10
74592422 38
74592432 79
74592442 129
74592452 186
74592462 248
74592472 312
74592482 380
74592492 448
74592502 518
74592512 588
74592522 658
74592532 729
74592542 800
74592552 871
74592562 942
74592572 1010
74592582 1065
74592592 1099
74592602 1106
74592612 1090
74592622 1059
74592632 1021
74592642 986
74592652 960
74592662 948
74592672 949
74592682 960
74592692 978
74592702 996
74592712 1012
74592722 1021
74592732 1024
74592742 1022
74592752 1016
74592762 1008
74592772 1001
74592782 996
74592792 992
74592802 991
74592812 992
74592822 993
74592832 995
74592842 996
74592852 998
74592862 998
74592872 998
74592882 998
74592892 998
74592902 998
74592912 998
74592922 998
74592932 998
74592942 998
74592952 998
74592962 998
74592972 998
74592982 998
74592992 998
74593002 998
74593012 998
74593022 998
74593032 998
74593042 998
74593052 998
74593062 998
74593072 998
74593082 998
74593092 998
74593102 998
74593112 998
74593122 998
74593132 998
74593142 998
74593152 998
74593162 998
74593172 998
74593182 998
74593192 998
74593202 998
74593212 998
74593222 998
74593232 998
74593242 998
74593252 998
74593262 998
74593272 998
74593282 998
74593292 998
74593302 998
74593312 998
74593322 998
74593332 998
74593342 998
74593352 998
74593362 998
74593372 998
74593382 998
74593392 998
74593402 998
74593412 998
74593422 998
74593432 998
74593442 998
74593452 998
74593462 998
74593472 998
74593482 998
74593492 998
74593502 998
74593512 998
74593522 998
74593532 998
74593542 998
74593552 998
74593562 998
74593572 998
74593582 998
74593592 998
74593602 998
74593612 998
74593622 998
74593632 998
74593642 998
74593652 998
74593662 998
74593672 998
74593682 998
74593692 998
74593702 998
74593712 998
74593722 998
74593732 998
74593742 998
74593752 998
74593762 998
74593772 998
74593782 998
74593792 998
74593802 998
74593812 998
74593822 998
74593832 998
74593842 998
74593852 998
74593862 998
74593872 998
74593882 998
74593892 998
74593902 998
74593912 998
74593922 998
74593932 998
74593942 998
74593952 998
74593962 998
74593972 998
74593982 998
74593992 998
74594002 998
74594012 998
74594022 998
74594032 998
74594042 998
74594052 998
74594062 998
74594072 998
74594082 998
74594092 998
74594102 998
74594112 998
74594122 998
74594132 998
74594142 998
74594152 998
74594162 998
74594172 998
74594182 998
74594192 998
74594202 998
74594212 998
74594222 998
74594232 998
74594242 998
74594252 998
74594262 998
74594272 998
74594282 998
74594292 998
74594302 998
74594312 998
74594322 998
74594332 998
74594342 998
74594352 998
74594362 998
74594372 998
74594382 998
74594392 998
74900345 0
74900356 10
74900366 39
74900376 80
74900386 131
74900396 188
74900406 250
74900416 314
74900426 382
74900436 450
74900446 519
74900456 589
74900466 660
74900476 730
74900486 801
74900496 872
74900506 944
74900516 1010
74900526 1064
74900536 1097
74900546 1108
74900556 1098
74900566 1073
74900576 1042
74900586 1010
74900596 983
74900606 965
74900616 956
74900626 958
74900636 965
74900646 977
74900656 990
74900666 1001
74900676 1009
74900686 1014
74900696 1016
74900706 1014
74900716 1012
74900726 1009
74900736 1006
74900746 1004
74900756 1002
74900766 1001
74900776 1001
74900786 1001
74900796 1001
74900806 1001
74900816 1001
74900826 1001
74900836 1001
74900846 1001
74900856 1001
74900866 1001
74900876 1001
74900886 1001
74900896 1001
74900906 1001
74900916 1001
74900926 1001
74900936 1001
74900946 1001
74900956 1001
74900966 1001
74900976 1001
74900986 1001
74900996 1001
74901006 1001
74901016 1001
74901026 1001
74901036 1001
74901046 1001
74901056 1001
74901066 1001
74901076 1001
74901086 1001
74901096 1001
74901106 1001
74901116 1001
74901126 1001
74901136 1001
74901146 1001
74901156 1001
74901166 1001
74901176 1001
74901186 1001
74901196 1001
74901206 1001
74901216 1001
74901226 1001
74901236 1001
74901246 1001
74901256 1001
74901266 1001
74901276 1001
74901286 1001
74901296 1001
74901306 1001
74901316 1001
74901326 1001
74901336 1001
74901346 1001
74901356 1001
74901366 1001
74901376 1001
74901386 1001
74901396 1001
74901406 1001
74901416 1001
74901426 1001
74901436 1001
74901446 1001
74901456 1001
74901466 1001
74901476 1001
74901486 1001
74901496 1001
74901506 1001
74901516 1001
74901526 1001
74901536 1001
74901546 1001
74901556 1001
74901566 1001
74901576 1001
74901586 1001
74901596 1001
74901606 1001
74901616 1001
74901626 1001
74901636 1001
74901646 1001
74901656 1001
74901666 1001
74901676 1001
74901686 1001
74901696 1001
74901706 1001
74901716 1001
74901726 1001
74901736 1001
74901746 1001
74901756 1001
74901766 1001
74901776 1001
74901786 1001
74901796 1001
74901806 1001
74901816 1001
74901826 1001
74901836 1001
74901846 1001
74901856 1001
74901866 1001
74901876 1001
74901886 1001
74901896 1001
74901906 1001
74901916 1001
74901926 1001
74901936 1001
74901946 1001
74901956 1001
74901966 1001
74901976 1001
74901986 1001
74901996 1001
74902006 1001
74902016 1001
74902026 1001
74902036 1001
74902046 1001
74902056 1001
74902066 1001
74902076 1001
74902086 1001
74902096 1001
74902106 1001
74902116 1001
74902126 1001
74902136 1001
74902146 1001
74902156 1001
74902166 1001
74902176 1001
74902186 1001
74902196 1001
74902206 1001
74902216 1001
74902226 1001
74902236 1001
74902246 1001
74902256 1001
74902266 1001
74902276 1001
74902286 1001
74902296 1001
74902306 1001
74902316 1001
74902326 1001
74902336 1001
74959733 1001
74959743 1011
74959753 1039
74959763 1081
74959773 1131
74959783 1188
74959793 1250
74959803 1315
74959813 1382
74959823 1450
74959833 1519
74959843 1589
74959853 1659
74959863 1730
74959873 1799
74959883 1864
74959893 1923
74959903 1972
74959913 2012
74959923 2041
74959933 2059
74959943 2069
74959953 2071
74959963 2068
74959973 2063
74959983 2056
74959993 2048
74960003 2040
74960013 2032
74960023 2026
74960033 2020
74960043 2014
74960053 2010
74960063 2007
74960073 2006
74960083 2004
74960093 2004
74960103 2005
74960113 2005
74960123 2005
74960133 2005
74960143 2005
74960153 2005
74960163 2005
74960173 2005
74960183 2005
74960193 2005
74960203 2005
74960213 2005
74960223 2005
74960233 2005
74960243 2005
74960253 2005
74960263 2005
74960273 2005
74960283 2005
74960293 2005
74960303 2005
74960313 2005
74960323 2005
74960333 2005
74960343 2005
74960353 2005
74960363 2005
74960373 2005
74960383 2005
74960393 2005
74960403 2005
74960413 2005
74960423 2005
74960433 2005
74960443 2005
74960453 2005
74960463 2005
74960473 2005
74960483 2005
74960493 2005
74960503 2005
74960513 2005
74960523 2005
74960533 2005
74960543 2005
74960553 2005
74960563 2005
74960573 2005
74960583 2005
74960593 2005
74960603 2005
74960613 2005
74960623 2005
74960633 2005
74960643 2005
74960653 2005
74960663 2005
74960673 2005
74960683 2005
74960693 2005
74960703 2005
74960713 2005
74960723 2005
74960733 2005
74960743 2005
74960753 2005
74960763 2005
74960773 2005
74960783 2005
74960793 2005
74960803 2005
74960813 2005
74960823 2005
74960833 2005
74960843 2005
74960853 2005
74960863 2005
74960873 2005
74960883 2005
74960893 2005
74960903 2005
74960913 2005
74960923 2005
74960933 2005
74960943 2005
74960953 2005
74960963 2005
74960973 2005
74960983 2005
74960993 2005
74961003 2005
74961013 2005
74961023 2005
74961033 2005
74961043 2005
74961053 2005
74961063 2005
74961073 2005
74961083 2005
74961093 2005
74961103 2005
74961113 2005
74961123 2005
74961133 2005
74961143 2005
74961153 2005
74961163 2005
74961173 2005
74961183 2005
74961193 2005
74961203 2005
74961213 2005
74961223 2005
74961233 2005
74961243 2005
74961253 2005
74961263 2005
74961273 2005
74961283 2005
74961293 2005
74961303 2005
74961313 2005
74961323 2005
74961333 2005
74961343 2005
74961353 2005
74961363 2005
74961373 2005
74961383 2005
74961393 2005
74961403 2005
74961413 2005
74961423 2005
74961433 2005
74961443 2005
74961453 2005
74961463 2005
74961473 2005
74961483 2005
74961493 2005
74961503 2005
74961513 2005
74961523 2005
74961533 2005
74961543 2005
74961553 2005
74961563 2005
74961573 2005
74961583 2005
74961593 2005
74961603 2005
74961613 2005
74961623 2005
74961633 2005
74961643 2005
74961653 2005
74961663 2005
74961673 2005
74961683 2005
74961693 2005
74961703 2005
74961713 2005
74961723 2005
75026678 2005
75026688 2013
75026698 2041
75026708 2080
75026718 2128
75026728 2181
75026738 2236
75026748 2292
75026758 2346
75026768 2400
75026778 2452
75026788 2501
75026798 2547
75026808 2590
75026818 2630
75026828 2667
75026838 2701
75026848 2732
75026858 2761
75026868 2786
75026878 2809
75026888 2830
75026898 2848
75026908 2864
75026918 2879
75026928 2892
75026938 2903
75026948 2913
75026958 2921
75026968 2929
75026978 2935
75026988 2940
75026998 2945
75027008 2949
75027018 2952
75027028 2955
75027038 2957
75027048 2959
75027058 2960
75027068 2961
75027078 2962
75027091 2962
75027101 2962
75027111 2962
75027121 2962
75027131 2962
75027141 2962
75027151 2962
75027161 2962
75027171 2962
75027181 2962
75027191 2962
75027201 2962
75027211 2962
75027221 2962
75027231 2962
75027241 2962
75027251 2962
75027261 2962
75027271 2962
75027281 2962
75027291 2962
75027301 2962
75027311 2962
75027321 2962
75027331 2962
75027341 2962
75027351 2962
75027361 2962
75027371 2962
75027381 2962
75027391 2962
75027401 2962
75027411 2962
75027421 2962
75027431 2962
75027441 2962
75027451 2962
75027461 2962
75027471 2962
75027481 2962
75027491 2962
75027501 2962
75027511 2962
75027521 2962
75027531 2962
75027541 2962
75027551 2962
75027561 2962
75027571 2962
75027581 2962
75027591 2962
75027601 2962
75027611 2962
75027621 2962
75027631 2962
75027641 2962
75027651 2962
75027661 2962
75027671 2962
75027681 2962
75027691 2962
75027701 2962
75027711 2962
75027721 2962
75027731 2962
75027741 2962
75027751 2962
75027761 2962
75027771 2962
75027781 2962
75027791 2962
75027801 2962
75027811 2962
75027821 2962
75027831 2962
75027841 2962
75027851 2962
75027861 2962
75027871 2962
75027881 2962
75027891 2962
75027901 2962
75027911 2962
75027921 2962
75027931 2962
75027941 2962
75027951 2962
75027961 2962
75027971 2962
75027981 2962
75027991 2962
75028001 2962
75028011 2962
75028021 2962
75028031 2962
75028041 2962
75028051 2962
75028061 2962
75028071 2962
75028081 2962
75028091 2962
75028101 2962
75028111 2962
75028121 2962
75028131 2962
75028141 2962
75028151 2962
75028161 2962
75028171 2962
75028181 2962
75028191 2962
75028201 2962
75028211 2962
75028221 2962
75028231 2962
75028241 2962
75028251 2962
75028261 2962
75028271 2962
75028281 2962
75028291 2962
75028301 2962
75028311 2962
75028321 2962
75028331 2962
75028341 2962
75028351 2962
75028361 2962
75028371 2962
75028381 2962
75028391 2962
75028401 2962
75028411 2962
75028421 2962
75028431 2962
75028441 2962
75028451 2962
75028461 2962
75028471 2962
75028481 2962
75028491 2962
75028501 2962
75028511 2962
75028521 2962
75028531 2962
75028541 2962
75028551 2962
75028561 2962
75028571 2962
75028581 2962
75028591 2962
75028601 2962
75028611 2962
75028621 2962
75028631 2962
75028641 2962
75028651 2962
75028661 2962
75028671 2962
75050900 2962
75050911 2972
75050921 3002
75050931 3043
75050941 3094
75050951 3151
75050961 3213
75050971 3278
75050981 3345
75050991 3414
75051001 3483
75051011 3553
75051021 3623
75051031 3693
75051041 3764
75051051 3835
75051061 3906
75051071 3977
75051081 4037
75051091 4070
75051101 4073
75051111 4056
75051121 4023
75051131 3978
75051141 3932
75051151 3901
75051161 3895
75051171 3912
75051181 3944
75051191 3983
75051201 4010
75051211 4016
75051221 4000
75051231 3970
75051241 3940
75051251 3920
75051261 3920
75051271 3937
75051281 3963
75051291 3986
75051301 3998
75051311 3993
75051321 3976
75051331 3955
75051341 3939
75051351 3934
75051361 3941
75051371 3956
75051381 3973
75051391 3983
75051401 3983
75051411 3975
75051421 3962
75051431 3951
75051441 3946
75051451 3948
75051461 3955
75051471 3964
75051481 3971
75051491 3974
75051501 3970
75051511 3965
75051521 3959
75051531 3956
75051541 3955
75051551 3957
75051561 3960
75051571 3963
75051581 3965
75051591 3966
75051601 3965
75051611 3964
75051621 3963
75051631 3963
75051641 3964
75051651 3964
75051661 3964
75051671 3964
75051681 3964
75051691 3964
75051701 3964
75051711 3964
75051721 3964
75051731 3964
75051741 3964
75051751 3964
75051761 3964
75051771 3964
75051781 3964
75051791 3964
75051801 3964
75051811 3964
75051821 3964
75051831 3964
75051841 3964
75051851 3964
75051861 3964
75051871 3964
75051881 3964
75051891 3964
75051901 3964
75051911 3964
75051921 3964
75051931 3964
75051941 3964
75051951 3964
75051961 3964
75051971 3964
75051981 3964
75051991 3964
75052001 3964
75052011 3964
75052021 3964
75052031 3964
75052041 3964
75052051 3964
75052061 3964
75052071 3964
75052081 3964
75052091 3964
75052101 3964
75052111 3964
75052121 3964
75052131 3964
75052141 3964
75052151 3964
75052161 3964
75052171 3964
75052181 3964
75052191 3964
75052201 3964
75052211 3964
75052221 3964
75052231 3964
75052241 3964
75052251 3964
75052261 3964
75052271 3964
75052281 3964
75052291 3964
75052301 3964
75052311 3964
75052321 3964
75052331 3964
75052341 3964
75052351 3964
75052361 3964
75052371 3964
75052381 3964
75052391 3964
75052401 3964
75052411 3964
75052421 3964
75052431 3964
75052441 3964
75052451 3964
75052461 3964
75052471 3964
75052481 3964
75052491 3964
75052501 3964
75052511 3964
75052521 3964
75052531 3964
75052541 3964
75052551 3964
75052561 3964
75052571 3964
75052581 3964
75052591 3964
75052601 3964
75052611 3964
75052621 3964
75052631 3964
75052641 3964
75052651 3964
75052661 3964
75052671 3964
75052681 3964
75052691 3964
75052701 3964
75052711 3964
75052721 3964
75052731 3964
75052741 3964
75052751 3964
75052761 3964
75052771 3964
75052781 3964
75052791 3964
75052801 3964
75052811 3964
75052821 3964
75052831 3964
75052841 3964
75052851 3964
75052861 3964
75052871 3964
75052881 3964
75052891 3964
75068391 3964
75068401 3974
75068411 4002
75068421 4043
75068431 4094
75068441 4150
75068451 4212
75068461 4277
75068471 4344
75068481 4412
75068491 4482
75068501 4552
75068511 4623
75068521 4694
75068531 4765
75068541 4837
75068551 4908
75068561 4980
75068571 5037
75068581 5062
75068591 5060
75068601 5039
75068611 5002
75068621 4956
75068631 4915
75068641 4900
75068651 4910
75068661 4938
75068671 4978
75068681 5013
75068691 5020
75068701 5004
75068711 4972
75068721 4934
75068731 4912
75068741 4917
75068751 4941
75068761 4980
75068771 5011
75068781 5016
75068791 5000
75068801 4968
75068811 4932
75068821 4913
75068831 4920
75068841 4946
75068851 4984
75068861 5013
75068871 5013
75068881 4992
75068891 4957
75068901 4924
75068911 4914
75068921 4927
75068931 4957
75068941 4993
75068951 5014
75068961 5008
75068971 4985
75068981 4947
75068991 4917
75069001 4914
75069011 4932
75069021 4966
75069031 5000
75069041 5014
75069051 5003
75069061 4975
75069071 4940
75069081 4917
75069091 4921
75069101 4944
75069111 4980
75069121 5011
75069131 5016
75069141 4998
75069151 4966
75069161 4932
75069171 4914
75069181 4922
75069191 4947
75069201 4984
75069211 5011
75069221 5011
75069231 4990
75069241 4955
75069251 4924
75069261 4915
75069271 4930
75069281 4961
75069291 4995
75069301 5013
75069311 5006
75069321 4981
75069331 4945
75069341 4918
75069351 4919
75069361 4939
75069371 4973
75069381 5005
75069391 5013
75069401 4999
75069411 4970
75069421 4935
75069431 4916
75069441 4922
75069451 4947
75069461 4983
75069471 5010
75069481 5011
75069491 4992
75069501 4960
75069511 4928
75069521 4916
75069531 4927
75069541 4955
75069551 4989
75069561 5010
75069571 5006
75069581 4982
75069591 4947
75069601 4920
75069611 4918
75069621 4936
75069631 4968
75069641 5001
75069651 5013
75069661 5003
75069671 4977
75069681 4942
75069691 4919
75069701 4922
75069711 4944
75069721 4980
75069731 5010
75069741 5014
75069751 4999
75069761 4968
75069771 4934
75069781 4915
75069791 4922
75069801 4946
75069811 4982
75069821 5010
75069831 5012
75069841 4995
75069851 4963
75069861 4930
75069871 4915
75069881 4925
75069891 4951
75069901 4986
75069911 5010
75069921 5010
75069931 4991
75069941 4958
75069951 4927
75069961 4916
75069971 4927
75069981 4954
75069991 4988
75070001 5010
75070011 5006
75070021 4985
75070031 4951
75070041 4922
75070051 4916
75070061 4932
75070071 4964
75070081 4996
75070091 5012
75070101 5003
75070111 4977
75070121 4943
75070131 4920
75070141 4922
75070151 4942
75070165 4992
75070175 5023
75070185 5026
75070195 5009
75070205 4978
75070215 4940
75070225 4912
75070235 4911
75070245 4929
75070255 4961
75070265 4996
75070275 5015
75070285 5010
75070295 4988
75070305 4953
75070315 4922
75070325 4914
75070335 4927
75070345 4955
75070355 4989
75070365 5011
75070375 5009
75070385 4990
75277425 0
75277435 9
75277445 36
75277455 77
75277465 126
75277475 183
75277485 244
75277495 308
75277505 375
75277515 443
75277525 509
75277535 574
75277545 635
75277555 692
75277565 743
75277575 790
75277585 831
75277595 867
75277605 898
75277615 924
75277625 945
75277635 962
75277645 975
75277655 985
75277665 993
75277675 997
75277685 1001
75277695 1002
75277705 1002
75277715 1002
75277725 1002
75277735 1002
75277745 1002
75277755 1002
75277765 1002
75277775 1002
75277785 1002
75277795 1002
75277805 1002
75277815 1002
75277825 1002
75277835 1002
75277845 1002
75277855 1002
75277865 1002
75277875 1002
75277885 1002
75277895 1002
75277905 1002
75277915 1002
75277925 1002
75277935 1002
75277945 1002
75277955 1002
75277965 1002
75277975 1002
75277985 1002
75277995 1002
75278005 1002
75278015 1002
75278025 1002
75278035 1002
75278045 1002
75278055 1002
75278065 1002
75278075 1002
75278085 1002
75278095 1002
75278105 1002
75278115 1002
75278125 1002
75278135 1002
75278145 1002
75278155 1002
75278165 1002
75278175 1002
75278185 1002
75278195 1002
75278205 1002
75278215 1002
75278225 1002
75278235 1002
75278245 1002
75278255 1002
75278265 1002
75278275 1002
75278285 1002
75278295 1002
75278305 1002
75278315 1002
75278325 1002
75278335 1002
75278345 1002
75278355 1002
75278365 1002
75278375 1002
75278385 1002
75278395 1002
75278405 1002
75278415 1002
75278425 1002
75278435 1002
75278445 1002
75278455 1002
75278465 1002
75278475 1002
75278485 1002
75278495 1002
75278505 1002
75278515 1002
75278525 1002
75278535 1002
75278545 1002
75278555 1002
75278565 1002
75278575 1002
75278585 1002
75278595 1002
75278605 1002
75278615 1002
75278625 1002
75278635 1002
75278645 1002
75278655 1002
75278665 1002
75278675 1002
75278685 1002
75278695 1002
75278705 1002
75278715 1002
75278725 1002
75278735 1002
75278745 1002
75278755 1002
75278765 1002
75278775 1002
75278785 1002
75278795 1002
75278805 1002
75278815 1002
75278825 1002
75278835 1002
75278845 1002
75278855 1002
75278865 1002
75278875 1002
75278885 1002
75278895 1002
75278905 1002
75278915 1002
75278925 1002
75278935 1002
75278945 1002
75278955 1002
75278965 1002
75278975 1002
75278985 1002
75278995 1002
75279005 1002
75279015 1002
75279025 1002
75279035 1002
75279045 1002
75279055 1002
75279065 1002
75279075 1002
75279085 1002
75279095 1002
75279105 1002
75279115 1002
75279125 1002
75279135 1002
75279145 1002
75279155 1002
75279165 1002
75279175 1002
75279185 1002
75279195 1002
75279205 1002
75279215 1002
75279225 1002
75279235 1002
75279245 1002
75279255 1002
75279265 1002
75279275 1002
75279285 1002
75279295 1002
75279305 1002
75279315 1002
75279325 1002
75279335 1002
75279345 1002
75279355 1002
75279365 1002
75279375 1002
75279385 1002
75279395 1002
75279405 1002
75279415 1002
